apID,apName,xloc,yloc,mapID
0,Never_gonna_give_you_up,43.68536931818182,243.03125,0
1,Never_gonna_let_you_down,225.45667613636365,112.47727272727273,0
2,Never_gonna_run_around_and_desert_you,474.5134943181818,50.21306818181819,0
3,Never_gonna_make_you_cry,700.4723011363636,93.39630681818183,0
4,Never_gonna_say_goodbye,914.3799715909091,242.02698863636365,0
5,Never_gonna_tell_a_lie_and_hurt_you,190.3075284090909,369.5681818181818,0
6,Rick_Astley_is_no_Blake_Krone,502.6328125,247.04829545454547,0
7,Powered_By_NeckBeard,783.8259943181819,373.5852272727273,0
8,Take_A_Closeup_of_this_Jussi,313.8316761363636,496.1051136363636,0
9,Taco_Taco_Taco_Welles,654.2762784090909,505.14346590909093,0
10,Keith_SoLongAndThanksForAllTheFis,480.5390625,644.7357954545455,0
